…
```r
library(dplyr)
library(hubData)

bucket_name <- "cdcepi-flusight-forecast-hub"
hub_bucket <- s3_bucket(bucket_name)
hub_con <- hubData::connect_hub(hub_bucket, file_format = "parquet", skip_checks = TRUE)
model_output <- hub_con %>%
  hubData::collect_hub()

model_output
# > model_output
# # A tibble: 10,196,416 × 9
#    model_id        reference_date target horizon location target_end_date output_type
#  * <chr>           <date>         <chr>    <int> <chr>    <date>          <chr>      
#  1 CADPH-FluCAT_E… 2023-10-14     wk in…      -1 06       2023-10-07      quantile   
#  2 CADPH-FluCAT_E… 2023-10-14     wk in…      -1 06       2023-10-07      quantile   
#  3 CADPH-FluCAT_E… 2023-10-14     wk in…      -1 06       2023-10-07      quantile   
#  4 CADPH-FluCAT_E… 2023-10-14     wk in…      -1 06       2023-10-07      quantile   
#  5 CADPH-FluCAT_E… 2023-10-14     wk in…      -1 06       2023-10-07      quantile   
#  6 CADPH-FluCAT_E… 2023-10-14     wk in…      -1 06       2023-10-07      quantile   
#  7 CADPH-FluCAT_E… 2023-10-14     wk in…      -1 06       2023-10-07      quantile   
#  8 CADPH-FluCAT_E… 2023-10-14     wk in…      -1 06       2023-10-07      quantile   
#  9 CADPH-FluCAT_E… 2023-10-14     wk in…      -1 06       2023-10-07      quantile   
# 10 CADPH-FluCAT_E… 2023-10-14     wk in…      -1 06       2023-10-07      quantile   
# # ℹ 10,196,406 more rows
```
…
```r
library(dplyr)
library(hubData)

bucket_name <- "cdcepi-flusight-forecast-hub"
hub_bucket <- s3_bucket(bucket_name)
hub_con <- hubData::connect_hub(hub_bucket, file_format = "parquet", skip_checks = TRUE)
hub_con %>%
  dplyr::filter(target == "wk inc flu hosp", location == "25", output_type == "quantile") %>%
  hubData::collect_hub() %>%
  dplyr::select(reference_date, model_id, target_end_date, location, output_type_id, value)


# A tibble: 153,065 × 6
#    reference_date model_id         target_end_date location output_type_id value
#    <date>         <chr>            <date>          <chr>    <chr>          <dbl>
#  1 2023-10-28     CEPH-Rtrend_fluH 2023-10-21      25       0.01               0
#  2 2023-10-28     CEPH-Rtrend_fluH 2023-10-28      25       0.01               2
#  3 2023-10-28     CEPH-Rtrend_fluH 2023-11-04      25       0.01               0
#  4 2023-10-28     CEPH-Rtrend_fluH 2023-11-11      25       0.01               0
#  5 2023-10-28     CEPH-Rtrend_fluH 2023-11-18      25       0.01               0
#  6 2023-10-28     CEPH-Rtrend_fluH 2023-10-21      25       0.025              0
#  7 2023-10-28     CEPH-Rtrend_fluH 2023-10-28      25       0.025              3
#  8 2023-10-28     CEPH-Rtrend_fluH 2023-11-04      25       0.025              0
#  9 2023-10-28     CEPH-Rtrend_fluH 2023-11-11      25       0.025              0
# 10 2023-10-28     CEPH-Rtrend_fluH 2023-11-18      25       0.025              0
# ℹ 153,055 more rows
```
…
